module cdel-rss

go 1.15

require (
	fyne.io/fyne/v2 v2.0.0
	github.com/Masterminds/goutils v1.1.0 // indirect
	github.com/Masterminds/semver v1.5.0 // indirect
	github.com/Masterminds/sprig v2.22.0+incompatible
	github.com/google/uuid v1.2.0 // indirect
	github.com/huandu/xstrings v1.3.2 // indirect
	github.com/imdario/mergo v0.3.11 // indirect
	github.com/mitchellh/copystructure v1.0.0 // indirect
	github.com/mmcdole/gofeed v1.1.0
)
